id_do,id_tr_shoes,detail_name,colour,size,width,length,detail_description,quality_status
DO00001,ITR0001,"SHOES NAME",Black,40.00,,,"SHOES DESC",0,"2021-01-17 19:39:56","2021-01-17 19:39:56"
DO00002,ITR0001,"SHOES NAME",Black,40.00,,,"SHOES DESC",0,"2021-01-17 19:39:56","2021-01-17 19:39:56"
DO00003,ITR0001,"SHOES NAME",Black,40.00,,,"SHOES DESC",0,"2021-01-17 19:39:56","2021-01-17 19:39:56"
DO00004,ITR0001,"SHOES NAME",Black,40.00,,,"SHOES DESC",0,"2021-01-17 19:39:56","2021-01-17 19:39:56"
DO00005,ITR0001,"SHOES NAME",Black,40.00,,,"SHOES DESC",0,"2021-01-17 19:39:56","2021-01-17 19:39:56"
DO00006,ITR0001,"SHOES NAME",Black,40.00,,,"SHOES DESC",0,"2021-01-17 19:39:56","2021-01-17 19:39:56"
DO00007,ITR0001,"SHOES NAME",Black,40.00,,,"SHOES DESC",0,"2021-01-17 19:39:56","2021-01-17 19:39:56"
DO00008,ITR0001,"SHOES NAME",Black,40.00,,,"SHOES DESC",0,"2021-01-17 19:39:56","2021-01-17 19:39:56"
DO00009,ITR0001,"SHOES NAME",Black,40.00,,,"SHOES DESC",0,"2021-01-17 19:39:56","2021-01-17 19:39:56"
DO00010,ITR0001,"SHOES NAME",Black,40.00,,,"SHOES DESC",0,"2021-01-17 19:39:56","2021-01-17 19:39:56"
DO00011,ITR0001,"SHOES NAME",Black,40.00,,,"SHOES DESC",0,"2021-01-17 19:39:56","2021-01-17 19:39:56"
DO00012,ITR0001,"SHOES NAME",Black,40.00,,,"SHOES DESC",0,"2021-01-17 19:39:56","2021-01-17 19:39:56"
DO00013,ITR0001,"SHOES NAME",Black,40.00,,,"SHOES DESC",0,"2021-01-17 19:39:56","2021-01-17 19:39:56"
DO00014,ITR0001,"SHOES NAME",Black,40.00,,,"SHOES DESC",0,"2021-01-17 19:39:56","2021-01-17 19:39:56"
DO00015,ITR0001,"SHOES NAME",Black,40.00,,,"SHOES DESC",0,"2021-01-17 19:39:56","2021-01-17 19:39:56"
DO00016,ITR0001,"SHOES NAME",Black,40.00,,,"SHOES DESC",0,"2021-01-17 19:39:56","2021-01-17 19:39:56"
DO00017,ITR0001,"SHOES NAME",Black,40.00,,,"SHOES DESC",0,"2021-01-17 19:39:56","2021-01-17 19:39:56"
DO00018,ITR0001,"SHOES NAME",Black,40.00,,,"SHOES DESC",0,"2021-01-17 19:39:56","2021-01-17 19:39:56"
DO00019,ITR0001,"SHOES NAME",Black,40.00,,,"SHOES DESC",0,"2021-01-17 19:39:56","2021-01-17 19:39:56"
DO00020,ITR0001,"SHOES NAME",Black,40.00,,,"SHOES DESC",0,"2021-01-17 19:39:56","2021-01-17 19:39:56"
DO00021,ITR0001,"SHOES NAME",Black,40.00,,,"SHOES DESC",0,"2021-01-17 19:39:56","2021-01-17 19:39:56"
DO00022,ITR0001,"SHOES NAME",Black,40.00,,,"SHOES DESC",0,"2021-01-17 19:39:56","2021-01-17 19:39:56"
DO00023,ITR0001,"SHOES NAME",Black,40.00,,,"SHOES DESC",0,"2021-01-17 19:39:56","2021-01-17 19:39:56"
DO00024,ITR0001,"SHOES NAME",Black,40.00,,,"SHOES DESC",0,"2021-01-17 19:39:56","2021-01-17 19:39:56"
DO00025,ITR0001,"SHOES NAME",Black,40.00,,,"SHOES DESC",0,"2021-01-17 19:39:56","2021-01-17 19:39:56"
DO00026,ITR0001,"SHOES NAME",Black,40.00,,,"SHOES DESC",0,"2021-01-17 19:39:56","2021-01-17 19:39:56"
DO00027,ITR0001,"SHOES NAME",Black,40.00,,,"SHOES DESC",0,"2021-01-17 19:39:56","2021-01-17 19:39:56"
DO00028,ITR0001,"SHOES NAME",Black,40.00,,,"SHOES DESC",0,"2021-01-17 19:39:56","2021-01-17 19:39:56"
DO00029,ITR0001,"SHOES NAME",Black,40.00,,,"SHOES DESC",0,"2021-01-17 19:39:56","2021-01-17 19:39:56"
DO00030,ITR0001,"SHOES NAME",Black,40.00,,,"SHOES DESC",0,"2021-01-17 19:39:56","2021-01-17 19:39:56"
DO00031,ITR0001,"SHOES NAME",Black,40.00,,,"SHOES DESC",0,"2021-01-17 19:39:56","2021-01-17 19:39:56"
DO00032,ITR0001,"SHOES NAME",Black,40.00,,,"SHOES DESC",0,"2021-01-17 19:39:56","2021-01-17 19:39:56"
DO00033,ITR0001,"SHOES NAME",Black,40.00,,,"SHOES DESC",0,"2021-01-17 19:39:56","2021-01-17 19:39:56"
DO00034,ITR0001,"SHOES NAME",Black,40.00,,,"SHOES DESC",0,"2021-01-17 19:39:56","2021-01-17 19:39:56"
DO00035,ITR0001,"SHOES NAME",Black,40.00,,,"SHOES DESC",0,"2021-01-17 19:39:56","2021-01-17 19:39:56"
DO00036,ITR0001,"SHOES NAME",Black,40.00,,,"SHOES DESC",0,"2021-01-17 19:39:56","2021-01-17 19:39:56"
DO00037,ITR0001,"SHOES NAME",Black,40.00,,,"SHOES DESC",0,"2021-01-17 19:39:56","2021-01-17 19:39:56"
DO00038,ITR0001,"SHOES NAME",Black,40.00,,,"SHOES DESC",0,"2021-01-17 19:39:56","2021-01-17 19:39:56"
DO00039,ITR0001,"SHOES NAME",Black,40.00,,,"SHOES DESC",0,"2021-01-17 19:39:56","2021-01-17 19:39:56"
DO00040,ITR0001,"SHOES NAME",Black,40.00,,,"SHOES DESC",0,"2021-01-17 19:39:56","2021-01-17 19:39:56"
DO00041,ITR0001,"SHOES NAME",Black,40.00,,,"SHOES DESC",0,"2021-01-17 19:39:56","2021-01-17 19:39:56"
DO00042,ITR0001,"SHOES NAME",Black,40.00,,,"SHOES DESC",0,"2021-01-17 19:39:56","2021-01-17 19:39:56"
DO00043,ITR0001,"SHOES NAME",Black,40.00,,,"SHOES DESC",0,"2021-01-17 19:39:56","2021-01-17 19:39:56"
DO00044,ITR0001,"SHOES NAME",Black,40.00,,,"SHOES DESC",0,"2021-01-17 19:39:56","2021-01-17 19:39:56"
DO00045,ITR0001,"SHOES NAME",Black,40.00,,,"SHOES DESC",0,"2021-01-17 19:39:56","2021-01-17 19:39:56"
DO00046,ITR0001,"SHOES NAME",Black,40.00,,,"SHOES DESC",0,"2021-01-17 19:39:56","2021-01-17 19:39:56"
DO00047,ITR0001,"SHOES NAME",Black,40.00,,,"SHOES DESC",0,"2021-01-17 19:39:56","2021-01-17 19:39:56"
DO00048,ITR0001,"SHOES NAME",Black,40.00,,,"SHOES DESC",0,"2021-01-17 19:39:56","2021-01-17 19:39:56"
DO00049,ITR0001,"SHOES NAME",Black,40.00,,,"SHOES DESC",0,"2021-01-17 19:39:56","2021-01-17 19:39:56"
DO00050,ITR0001,"SHOES NAME",Black,40.00,,,"SHOES DESC",0,"2021-01-17 19:39:56","2021-01-17 19:39:56"
DO00051,ITR0001,"SHOES NAME",Black,40.00,,,"SHOES DESC",0,"2021-01-17 19:39:56","2021-01-17 19:39:56"
DO00052,ITR0001,"SHOES NAME",Black,40.00,,,"SHOES DESC",0,"2021-01-17 19:39:56","2021-01-17 19:39:56"
DO00053,ITR0001,"SHOES NAME",Black,40.00,,,"SHOES DESC",0,"2021-01-17 19:39:56","2021-01-17 19:39:56"
DO00054,ITR0001,"SHOES NAME",Black,40.00,,,"SHOES DESC",0,"2021-01-17 19:39:56","2021-01-17 19:39:56"
DO00055,ITR0001,"SHOES NAME",Black,40.00,,,"SHOES DESC",0,"2021-01-17 19:39:56","2021-01-17 19:39:56"
DO00056,ITR0001,"SHOES NAME",Black,40.00,,,"SHOES DESC",0,"2021-01-17 19:39:56","2021-01-17 19:39:56"
DO00057,ITR0001,"SHOES NAME",Black,40.00,,,"SHOES DESC",0,"2021-01-17 19:39:56","2021-01-17 19:39:56"
DO00058,ITR0001,"SHOES NAME",Black,40.00,,,"SHOES DESC",0,"2021-01-17 19:39:56","2021-01-17 19:39:56"
DO00059,ITR0001,"SHOES NAME",Black,40.00,,,"SHOES DESC",0,"2021-01-17 19:39:56","2021-01-17 19:39:56"
DO00060,ITR0001,"SHOES NAME",Black,40.00,,,"SHOES DESC",0,"2021-01-17 19:39:56","2021-01-17 19:39:56"
DO00061,ITR0001,"SHOES NAME",Black,40.00,,,"SHOES DESC",0,"2021-01-17 19:39:56","2021-01-17 19:39:56"
DO00062,ITR0001,"SHOES NAME",Black,40.00,,,"SHOES DESC",0,"2021-01-17 19:39:56","2021-01-17 19:39:56"
DO00063,ITR0001,"SHOES NAME",Black,40.00,,,"SHOES DESC",0,"2021-01-17 19:39:56","2021-01-17 19:39:56"
DO00064,ITR0001,"SHOES NAME",Black,40.00,,,"SHOES DESC",0,"2021-01-17 19:39:56","2021-01-17 19:39:56"
DO00065,ITR0001,"SHOES NAME",Black,40.00,,,"SHOES DESC",0,"2021-01-17 19:39:56","2021-01-17 19:39:56"
DO00066,ITR0001,"SHOES NAME",Black,40.00,,,"SHOES DESC",0,"2021-01-17 19:39:56","2021-01-17 19:39:56"
DO00067,ITR0001,"SHOES NAME",Black,40.00,,,"SHOES DESC",0,"2021-01-17 19:39:56","2021-01-17 19:39:56"
DO00068,ITR0001,"SHOES NAME",Black,40.00,,,"SHOES DESC",0,"2021-01-17 19:39:56","2021-01-17 19:39:56"
DO00069,ITR0001,"SHOES NAME",Black,40.00,,,"SHOES DESC",0,"2021-01-17 19:39:56","2021-01-17 19:39:56"
DO00070,ITR0001,"SHOES NAME",Black,40.00,,,"SHOES DESC",0,"2021-01-17 19:39:56","2021-01-17 19:39:56"
DO00071,ITR0001,"SHOES NAME",Black,40.00,,,"SHOES DESC",0,"2021-01-17 19:39:56","2021-01-17 19:39:56"
DO00072,ITR0001,"SHOES NAME",Black,40.00,,,"SHOES DESC",0,"2021-01-17 19:39:56","2021-01-17 19:39:56"
DO00073,ITR0001,"SHOES NAME",Black,40.00,,,"SHOES DESC",0,"2021-01-17 19:39:56","2021-01-17 19:39:56"
DO00074,ITR0001,"SHOES NAME",Black,40.00,,,"SHOES DESC",0,"2021-01-17 19:39:56","2021-01-17 19:39:56"
DO00075,ITR0001,"SHOES NAME",Black,40.00,,,"SHOES DESC",0,"2021-01-17 19:39:56","2021-01-17 19:39:56"
DO00076,ITR0001,"SHOES NAME",Black,40.00,,,"SHOES DESC",0,"2021-01-17 19:39:56","2021-01-17 19:39:56"
DO00077,ITR0001,"SHOES NAME",Black,40.00,,,"SHOES DESC",0,"2021-01-17 19:39:56","2021-01-17 19:39:56"
DO00078,ITR0001,"SHOES NAME",Black,40.00,,,"SHOES DESC",0,"2021-01-17 19:39:56","2021-01-17 19:39:56"
DO00079,ITR0001,"SHOES NAME",Black,40.00,,,"SHOES DESC",0,"2021-01-17 19:39:56","2021-01-17 19:39:56"
DO00080,ITR0001,"SHOES NAME",Black,40.00,,,"SHOES DESC",0,"2021-01-17 19:39:56","2021-01-17 19:39:56"
DO00081,ITR0001,"SHOES NAME",Black,40.00,,,"SHOES DESC",0,"2021-01-17 19:39:56","2021-01-17 19:39:56"
DO00082,ITR0001,"SHOES NAME",Black,40.00,,,"SHOES DESC",0,"2021-01-17 19:39:56","2021-01-17 19:39:56"
DO00083,ITR0001,"SHOES NAME",Black,40.00,,,"SHOES DESC",0,"2021-01-17 19:39:56","2021-01-17 19:39:56"
DO00084,ITR0001,"SHOES NAME",Black,40.00,,,"SHOES DESC",0,"2021-01-17 19:39:56","2021-01-17 19:39:56"
DO00085,ITR0001,"SHOES NAME",Black,40.00,,,"SHOES DESC",0,"2021-01-17 19:39:56","2021-01-17 19:39:56"
DO00086,ITR0001,"SHOES NAME",Black,40.00,,,"SHOES DESC",0,"2021-01-17 19:39:56","2021-01-17 19:39:56"
DO00087,ITR0001,"SHOES NAME",Black,40.00,,,"SHOES DESC",0,"2021-01-17 19:39:56","2021-01-17 19:39:56"
DO00088,ITR0001,"SHOES NAME",Black,40.00,,,"SHOES DESC",0,"2021-01-17 19:39:56","2021-01-17 19:39:56"
DO00089,ITR0001,"SHOES NAME",Black,40.00,,,"SHOES DESC",0,"2021-01-17 19:39:56","2021-01-17 19:39:56"
DO00090,ITR0001,"SHOES NAME",Black,40.00,,,"SHOES DESC",0,"2021-01-17 19:39:56","2021-01-17 19:39:56"
DO00091,ITR0001,"SHOES NAME",Black,40.00,,,"SHOES DESC",0,"2021-01-17 19:39:56","2021-01-17 19:39:56"
DO00092,ITR0001,"SHOES NAME",Black,40.00,,,"SHOES DESC",0,"2021-01-17 19:39:56","2021-01-17 19:39:56"
DO00093,ITR0001,"SHOES NAME",Black,40.00,,,"SHOES DESC",0,"2021-01-17 19:39:56","2021-01-17 19:39:56"
DO00094,ITR0001,"SHOES NAME",Black,40.00,,,"SHOES DESC",0,"2021-01-17 19:39:56","2021-01-17 19:39:56"
DO00095,ITR0001,"SHOES NAME",Black,40.00,,,"SHOES DESC",0,"2021-01-17 19:39:56","2021-01-17 19:39:56"
DO00096,ITR0001,"SHOES NAME",Black,40.00,,,"SHOES DESC",0,"2021-01-17 19:39:56","2021-01-17 19:39:56"
DO00097,ITR0001,"SHOES NAME",Black,40.00,,,"SHOES DESC",0,"2021-01-17 19:39:56","2021-01-17 19:39:56"
DO00098,ITR0001,"SHOES NAME",Black,40.00,,,"SHOES DESC",0,"2021-01-17 19:39:56","2021-01-17 19:39:56"
DO00099,ITR0001,"SHOES NAME",Black,40.00,,,"SHOES DESC",0,"2021-01-17 19:39:56","2021-01-17 19:39:56"
DO00100,ITR0001,"SHOES NAME",Black,40.00,,,"SHOES DESC",0,"2021-01-17 19:39:56","2021-01-17 19:39:56"
DO00101,ITR0001,"SHOES NAME",Black,40.00,,,"SHOES DESC",0,"2021-01-17 19:39:56","2021-01-17 19:39:56"
DO00102,ITR0001,"SHOES NAME",Black,40.00,,,"SHOES DESC",0,"2021-01-17 19:39:56","2021-01-17 19:39:56"
DO00103,ITR0001,"SHOES NAME",Black,40.00,,,"SHOES DESC",0,"2021-01-17 19:39:56","2021-01-17 19:39:56"
DO00104,ITR0001,"SHOES NAME",Black,40.00,,,"SHOES DESC",0,"2021-01-17 19:39:56","2021-01-17 19:39:56"
DO00105,ITR0001,"SHOES NAME",Black,40.00,,,"SHOES DESC",0,"2021-01-17 19:39:56","2021-01-17 19:39:56"
DO00106,ITR0001,"SHOES NAME",Black,40.00,,,"SHOES DESC",0,"2021-01-17 19:39:56","2021-01-17 19:39:56"
DO00107,ITR0001,"SHOES NAME",Black,40.00,,,"SHOES DESC",0,"2021-01-17 19:39:56","2021-01-17 19:39:56"
DO00108,ITR0001,"SHOES NAME",Black,40.00,,,"SHOES DESC",0,"2021-01-17 19:39:56","2021-01-17 19:39:56"
DO00109,ITR0001,"SHOES NAME",Black,40.00,,,"SHOES DESC",0,"2021-01-17 19:39:56","2021-01-17 19:39:56"
DO00110,ITR0001,"SHOES NAME",Black,40.00,,,"SHOES DESC",0,"2021-01-17 19:39:56","2021-01-17 19:39:56"
DO00111,ITR0001,"SHOES NAME",Black,40.00,,,"SHOES DESC",0,"2021-01-17 19:39:56","2021-01-17 19:39:56"
DO00112,ITR0001,"SHOES NAME",Black,40.00,,,"SHOES DESC",0,"2021-01-17 19:39:56","2021-01-17 19:39:56"
DO00113,ITR0001,"SHOES NAME",Black,40.00,,,"SHOES DESC",0,"2021-01-17 19:39:56","2021-01-17 19:39:56"
DO00114,ITR0001,"SHOES NAME",Black,40.00,,,"SHOES DESC",0,"2021-01-17 19:39:56","2021-01-17 19:39:56"
DO00115,ITR0001,"SHOES NAME",Black,40.00,,,"SHOES DESC",0,"2021-01-17 19:39:56","2021-01-17 19:39:56"
DO00116,ITR0001,"SHOES NAME",Black,40.00,,,"SHOES DESC",0,"2021-01-17 19:39:56","2021-01-17 19:39:56"
DO00117,ITR0001,"SHOES NAME",Black,40.00,,,"SHOES DESC",0,"2021-01-17 19:39:56","2021-01-17 19:39:56"
DO00118,ITR0001,"SHOES NAME",Black,40.00,,,"SHOES DESC",0,"2021-01-17 19:39:56","2021-01-17 19:39:56"
DO00119,ITR0001,"SHOES NAME",Black,40.00,,,"SHOES DESC",0,"2021-01-17 19:39:56","2021-01-17 19:39:56"
DO00120,ITR0001,"SHOES NAME",Black,40.00,,,"SHOES DESC",0,"2021-01-17 19:39:56","2021-01-17 19:39:56"
DO00121,ITR0001,"SHOES NAME",Black,40.00,,,"SHOES DESC",0,"2021-01-17 19:39:56","2021-01-17 19:39:56"
DO00122,ITR0001,"SHOES NAME",Black,40.00,,,"SHOES DESC",0,"2021-01-17 19:39:56","2021-01-17 19:39:56"
DO00123,ITR0001,"SHOES NAME",Black,40.00,,,"SHOES DESC",0,"2021-01-17 19:39:56","2021-01-17 19:39:56"
DO00124,ITR0001,"SHOES NAME",Black,40.00,,,"SHOES DESC",0,"2021-01-17 19:39:56","2021-01-17 19:39:56"
DO00125,ITR0001,"SHOES NAME",Black,40.00,,,"SHOES DESC",0,"2021-01-17 19:39:56","2021-01-17 19:39:56"
DO00126,ITR0001,"SHOES NAME",Black,40.00,,,"SHOES DESC",0,"2021-01-17 19:39:56","2021-01-17 19:39:56"
DO00127,ITR0001,"SHOES NAME",Black,40.00,,,"SHOES DESC",0,"2021-01-17 19:39:56","2021-01-17 19:39:56"
DO00128,ITR0001,"SHOES NAME",Black,40.00,,,"SHOES DESC",0,"2021-01-17 19:39:56","2021-01-17 19:39:56"
DO00129,ITR0001,"SHOES NAME",Black,40.00,,,"SHOES DESC",0,"2021-01-17 19:39:56","2021-01-17 19:39:56"
DO00130,ITR0001,"SHOES NAME",Black,40.00,,,"SHOES DESC",0,"2021-01-17 19:39:56","2021-01-17 19:39:56"
DO00131,ITR0001,"SHOES NAME",Black,40.00,,,"SHOES DESC",0,"2021-01-17 19:39:56","2021-01-17 19:39:56"
DO00132,ITR0001,"SHOES NAME",Black,40.00,,,"SHOES DESC",0,"2021-01-17 19:39:56","2021-01-17 19:39:56"
DO00133,ITR0001,"SHOES NAME",Black,40.00,,,"SHOES DESC",0,"2021-01-17 19:39:56","2021-01-17 19:39:56"
DO00134,ITR0001,"SHOES NAME",Black,40.00,,,"SHOES DESC",0,"2021-01-17 19:39:56","2021-01-17 19:39:56"
DO00135,ITR0001,"SHOES NAME",Black,40.00,,,"SHOES DESC",0,"2021-01-17 19:39:56","2021-01-17 19:39:56"
DO00136,ITR0001,"SHOES NAME",Black,40.00,,,"SHOES DESC",0,"2021-01-17 19:39:56","2021-01-17 19:39:56"
DO00137,ITR0001,"SHOES NAME",Black,40.00,,,"SHOES DESC",0,"2021-01-17 19:39:56","2021-01-17 19:39:56"
DO00138,ITR0001,"SHOES NAME",Black,40.00,,,"SHOES DESC",0,"2021-01-17 19:39:56","2021-01-17 19:39:56"
DO00139,ITR0001,"SHOES NAME",Black,40.00,,,"SHOES DESC",0,"2021-01-17 19:39:56","2021-01-17 19:39:56"
DO00140,ITR0001,"SHOES NAME",Black,40.00,,,"SHOES DESC",0,"2021-01-17 19:39:56","2021-01-17 19:39:56"
DO00141,ITR0001,"SHOES NAME",Black,40.00,,,"SHOES DESC",0,"2021-01-17 19:39:56","2021-01-17 19:39:56"
DO00142,ITR0001,"SHOES NAME",Black,40.00,,,"SHOES DESC",0,"2021-01-17 19:39:56","2021-01-17 19:39:56"
DO00143,ITR0001,"SHOES NAME",Black,40.00,,,"SHOES DESC",0,"2021-01-17 19:39:56","2021-01-17 19:39:56"
DO00144,ITR0001,"SHOES NAME",Black,40.00,,,"SHOES DESC",0,"2021-01-17 19:39:56","2021-01-17 19:39:56"
DO00145,ITR0001,"SHOES NAME",Black,40.00,,,"SHOES DESC",0,"2021-01-17 19:39:56","2021-01-17 19:39:56"
DO00146,ITR0001,"SHOES NAME",Black,40.00,,,"SHOES DESC",0,"2021-01-17 19:39:56","2021-01-17 19:39:56"
DO00147,ITR0001,"SHOES NAME",Black,40.00,,,"SHOES DESC",0,"2021-01-17 19:39:56","2021-01-17 19:39:56"
DO00148,ITR0001,"SHOES NAME",Black,40.00,,,"SHOES DESC",0,"2021-01-17 19:39:56","2021-01-17 19:39:56"
DO00149,ITR0001,"SHOES NAME",Black,40.00,,,"SHOES DESC",0,"2021-01-17 19:39:56","2021-01-17 19:39:56"
DO00150,ITR0001,"SHOES NAME",Black,40.00,,,"SHOES DESC",0,"2021-01-17 19:39:56","2021-01-17 19:39:56"
DO00151,ITR0002,"SHOES NAME",Brown,43.00,,,"SHOES DESC",0,"2021-01-17 19:39:56","2021-01-17 19:39:56"
DO00152,ITR0002,"SHOES NAME",Brown,43.00,,,"SHOES DESC",0,"2021-01-17 19:39:56","2021-01-17 19:39:56"
DO00153,ITR0002,"SHOES NAME",Brown,43.00,,,"SHOES DESC",0,"2021-01-17 19:39:56","2021-01-17 19:39:56"
DO00154,ITR0002,"SHOES NAME",Brown,43.00,,,"SHOES DESC",0,"2021-01-17 19:39:56","2021-01-17 19:39:56"
DO00155,ITR0002,"SHOES NAME",Brown,43.00,,,"SHOES DESC",0,"2021-01-17 19:39:56","2021-01-17 19:39:56"
DO00156,ITR0002,"SHOES NAME",Brown,43.00,,,"SHOES DESC",0,"2021-01-17 19:39:56","2021-01-17 19:39:56"
DO00157,ITR0002,"SHOES NAME",Brown,43.00,,,"SHOES DESC",0,"2021-01-17 19:39:56","2021-01-17 19:39:56"
DO00158,ITR0002,"SHOES NAME",Brown,43.00,,,"SHOES DESC",0,"2021-01-17 19:39:56","2021-01-17 19:39:56"
DO00159,ITR0002,"SHOES NAME",Brown,43.00,,,"SHOES DESC",0,"2021-01-17 19:39:56","2021-01-17 19:39:56"
DO00160,ITR0002,"SHOES NAME",Brown,43.00,,,"SHOES DESC",0,"2021-01-17 19:39:56","2021-01-17 19:39:56"
DO00161,ITR0003,"SHOES NAME",Black,40.00,,,"SHOES DESC",0,"2021-01-17 19:39:56","2021-01-17 19:39:56"
DO00162,ITR0004,"SHOES NAME",Purple,42.00,,,"SHOES DESC",0,"2021-01-17 19:39:56","2021-01-17 19:39:56"
DO00163,ITR0005,"SHOES NAME",Black,42.00,,,"SHOES DESC",0,"2021-01-17 19:39:56","2021-01-17 19:39:56"
DO00164,ITR0006,"SHOES NAME",Orange,43.00,,,"SHOES DESC",0,"2021-01-17 19:39:56","2021-01-17 19:39:56"
DO00165,ITR0006,"SHOES NAME",Orange,43.00,,,"SHOES DESC",0,"2021-01-17 19:39:56","2021-01-17 19:39:56"
DO00166,ITR0006,"SHOES NAME",Orange,43.00,,,"SHOES DESC",0,"2021-01-17 19:39:56","2021-01-17 19:39:56"
DO00167,ITR0006,"SHOES NAME",Orange,43.00,,,"SHOES DESC",0,"2021-01-17 19:39:56","2021-01-17 19:39:56"
DO00168,ITR0006,"SHOES NAME",Orange,43.00,,,"SHOES DESC",0,"2021-01-17 19:39:56","2021-01-17 19:39:56"
DO00169,ITR0006,"SHOES NAME",Orange,43.00,,,"SHOES DESC",0,"2021-01-17 19:39:56","2021-01-17 19:39:56"
DO00170,ITR0006,"SHOES NAME",Orange,43.00,,,"SHOES DESC",0,"2021-01-17 19:39:56","2021-01-17 19:39:56"
DO00171,ITR0006,"SHOES NAME",Orange,43.00,,,"SHOES DESC",0,"2021-01-17 19:39:56","2021-01-17 19:39:56"
DO00172,ITR0006,"SHOES NAME",Orange,43.00,,,"SHOES DESC",0,"2021-01-17 19:39:56","2021-01-17 19:39:56"
DO00173,ITR0006,"SHOES NAME",Orange,43.00,,,"SHOES DESC",0,"2021-01-17 19:39:56","2021-01-17 19:39:56"
DO00174,ITR0006,"SHOES NAME",Orange,43.00,,,"SHOES DESC",0,"2021-01-17 19:39:56","2021-01-17 19:39:56"
DO00175,ITR0006,"SHOES NAME",Orange,43.00,,,"SHOES DESC",0,"2021-01-17 19:39:56","2021-01-17 19:39:56"
DO00176,ITR0006,"SHOES NAME",Orange,43.00,,,"SHOES DESC",0,"2021-01-17 19:39:56","2021-01-17 19:39:56"
DO00177,ITR0006,"SHOES NAME",Orange,43.00,,,"SHOES DESC",0,"2021-01-17 19:39:56","2021-01-17 19:39:56"
DO00178,ITR0006,"SHOES NAME",Orange,43.00,,,"SHOES DESC",0,"2021-01-17 19:39:56","2021-01-17 19:39:56"
DO00179,ITR0006,"SHOES NAME",Orange,43.00,,,"SHOES DESC",0,"2021-01-17 19:39:56","2021-01-17 19:39:56"
DO00180,ITR0006,"SHOES NAME",Orange,43.00,,,"SHOES DESC",0,"2021-01-17 19:39:56","2021-01-17 19:39:56"
DO00181,ITR0006,"SHOES NAME",Orange,43.00,,,"SHOES DESC",0,"2021-01-17 19:39:56","2021-01-17 19:39:56"
DO00182,ITR0006,"SHOES NAME",Orange,43.00,,,"SHOES DESC",0,"2021-01-17 19:39:56","2021-01-17 19:39:56"
DO00183,ITR0006,"SHOES NAME",Orange,43.00,,,"SHOES DESC",0,"2021-01-17 19:39:56","2021-01-17 19:39:56"
DO00184,ITR0006,"SHOES NAME",Orange,43.00,,,"SHOES DESC",0,"2021-01-17 19:39:56","2021-01-17 19:39:56"
DO00185,ITR0006,"SHOES NAME",Orange,43.00,,,"SHOES DESC",0,"2021-01-17 19:39:56","2021-01-17 19:39:56"
DO00186,ITR0006,"SHOES NAME",Orange,43.00,,,"SHOES DESC",0,"2021-01-17 19:39:56","2021-01-17 19:39:56"
DO00187,ITR0006,"SHOES NAME",Orange,43.00,,,"SHOES DESC",0,"2021-01-17 19:39:56","2021-01-17 19:39:56"
DO00188,ITR0006,"SHOES NAME",Orange,43.00,,,"SHOES DESC",0,"2021-01-17 19:39:56","2021-01-17 19:39:56"
DO00189,ITR0006,"SHOES NAME",Orange,43.00,,,"SHOES DESC",0,"2021-01-17 19:39:56","2021-01-17 19:39:56"
DO00190,ITR0006,"SHOES NAME",Orange,43.00,,,"SHOES DESC",0,"2021-01-17 19:39:56","2021-01-17 19:39:56"
DO00191,ITR0007,"SHOES NAME",Purple,43.00,,,"SHOES DESC",0,"2021-01-17 19:39:56","2021-01-17 19:39:56"
DO00192,ITR0007,"SHOES NAME",Purple,43.00,,,"SHOES DESC",0,"2021-01-17 19:39:56","2021-01-17 19:39:56"
DO00193,ITR0007,"SHOES NAME",Purple,43.00,,,"SHOES DESC",0,"2021-01-17 19:39:56","2021-01-17 19:39:56"
DO00194,ITR0007,"SHOES NAME",Purple,43.00,,,"SHOES DESC",0,"2021-01-17 19:39:56","2021-01-17 19:39:56"
DO00195,ITR0007,"SHOES NAME",Purple,43.00,,,"SHOES DESC",0,"2021-01-17 19:39:56","2021-01-17 19:39:56"
DO00196,ITR0007,"SHOES NAME",Purple,43.00,,,"SHOES DESC",0,"2021-01-17 19:39:56","2021-01-17 19:39:56"
DO00197,ITR0007,"SHOES NAME",Purple,43.00,,,"SHOES DESC",0,"2021-01-17 19:39:56","2021-01-17 19:39:56"
DO00198,ITR0007,"SHOES NAME",Purple,43.00,,,"SHOES DESC",0,"2021-01-17 19:39:56","2021-01-17 19:39:56"
DO00199,ITR0007,"SHOES NAME",Purple,43.00,,,"SHOES DESC",0,"2021-01-17 19:39:56","2021-01-17 19:39:56"
DO00200,ITR0007,"SHOES NAME",Purple,43.00,,,"SHOES DESC",0,"2021-01-17 19:39:56","2021-01-17 19:39:56"
DO00201,ITR0007,"SHOES NAME",Purple,43.00,,,"SHOES DESC",0,"2021-01-17 19:39:56","2021-01-17 19:39:56"
DO00202,ITR0007,"SHOES NAME",Purple,43.00,,,"SHOES DESC",0,"2021-01-17 19:39:56","2021-01-17 19:39:56"
DO00203,ITR0007,"SHOES NAME",Purple,43.00,,,"SHOES DESC",0,"2021-01-17 19:39:56","2021-01-17 19:39:56"
DO00204,ITR0007,"SHOES NAME",Purple,43.00,,,"SHOES DESC",0,"2021-01-17 19:39:56","2021-01-17 19:39:56"
DO00205,ITR0007,"SHOES NAME",Purple,43.00,,,"SHOES DESC",0,"2021-01-17 19:39:56","2021-01-17 19:39:56"
DO00206,ITR0007,"SHOES NAME",Purple,43.00,,,"SHOES DESC",0,"2021-01-17 19:39:56","2021-01-17 19:39:56"
DO00207,ITR0007,"SHOES NAME",Purple,43.00,,,"SHOES DESC",0,"2021-01-17 19:39:56","2021-01-17 19:39:56"
DO00208,ITR0007,"SHOES NAME",Purple,43.00,,,"SHOES DESC",0,"2021-01-17 19:39:56","2021-01-17 19:39:56"
DO00209,ITR0007,"SHOES NAME",Purple,43.00,,,"SHOES DESC",0,"2021-01-17 19:39:56","2021-01-17 19:39:56"
DO00210,ITR0007,"SHOES NAME",Purple,43.00,,,"SHOES DESC",0,"2021-01-17 19:39:56","2021-01-17 19:39:56"
DO00211,ITR0007,"SHOES NAME",Purple,43.00,,,"SHOES DESC",0,"2021-01-17 19:39:56","2021-01-17 19:39:56"
DO00212,ITR0007,"SHOES NAME",Purple,43.00,,,"SHOES DESC",0,"2021-01-17 19:39:56","2021-01-17 19:39:56"
DO00213,ITR0007,"SHOES NAME",Purple,43.00,,,"SHOES DESC",0,"2021-01-17 19:39:56","2021-01-17 19:39:56"
DO00214,ITR0007,"SHOES NAME",Purple,43.00,,,"SHOES DESC",0,"2021-01-17 19:39:56","2021-01-17 19:39:56"
DO00215,ITR0008,"SHOES NAME",Red,40.00,,,"SHOES DESC",0,"2021-01-17 19:39:56","2021-01-17 19:39:56"
DO00216,ITR0008,"SHOES NAME",Red,40.00,,,"SHOES DESC",0,"2021-01-17 19:39:56","2021-01-17 19:39:56"
DO00217,ITR0008,"SHOES NAME",Red,40.00,,,"SHOES DESC",0,"2021-01-17 19:39:56","2021-01-17 19:39:56"
DO00218,ITR0008,"SHOES NAME",Red,40.00,,,"SHOES DESC",0,"2021-01-17 19:39:56","2021-01-17 19:39:56"
DO00219,ITR0008,"SHOES NAME",Red,40.00,,,"SHOES DESC",0,"2021-01-17 19:39:56","2021-01-17 19:39:56"
DO00220,ITR0008,"SHOES NAME",Red,40.00,,,"SHOES DESC",0,"2021-01-17 19:39:56","2021-01-17 19:39:56"
DO00221,ITR0008,"SHOES NAME",Red,40.00,,,"SHOES DESC",0,"2021-01-17 19:39:56","2021-01-17 19:39:56"
DO00222,ITR0008,"SHOES NAME",Red,40.00,,,"SHOES DESC",0,"2021-01-17 19:39:56","2021-01-17 19:39:56"
DO00223,ITR0008,"SHOES NAME",Red,40.00,,,"SHOES DESC",0,"2021-01-17 19:39:56","2021-01-17 19:39:56"
DO00224,ITR0008,"SHOES NAME",Red,40.00,,,"SHOES DESC",0,"2021-01-17 19:39:56","2021-01-17 19:39:56"
DO00225,ITR0008,"SHOES NAME",Red,40.00,,,"SHOES DESC",0,"2021-01-17 19:39:56","2021-01-17 19:39:56"
DO00226,ITR0008,"SHOES NAME",Red,40.00,,,"SHOES DESC",0,"2021-01-17 19:39:56","2021-01-17 19:39:56"
DO00227,ITR0008,"SHOES NAME",Red,40.00,,,"SHOES DESC",0,"2021-01-17 19:39:56","2021-01-17 19:39:56"
DO00228,ITR0008,"SHOES NAME",Red,40.00,,,"SHOES DESC",0,"2021-01-17 19:39:56","2021-01-17 19:39:56"
DO00229,ITR0008,"SHOES NAME",Red,40.00,,,"SHOES DESC",0,"2021-01-17 19:39:56","2021-01-17 19:39:56"
DO00230,ITR0008,"SHOES NAME",Red,40.00,,,"SHOES DESC",0,"2021-01-17 19:39:56","2021-01-17 19:39:56"
DO00231,ITR0008,"SHOES NAME",Red,40.00,,,"SHOES DESC",0,"2021-01-17 19:39:56","2021-01-17 19:39:56"
DO00232,ITR0008,"SHOES NAME",Red,40.00,,,"SHOES DESC",0,"2021-01-17 19:39:56","2021-01-17 19:39:56"
DO00233,ITR0008,"SHOES NAME",Red,40.00,,,"SHOES DESC",0,"2021-01-17 19:39:56","2021-01-17 19:39:56"
DO00234,ITR0008,"SHOES NAME",Red,40.00,,,"SHOES DESC",0,"2021-01-17 19:39:56","2021-01-17 19:39:56"
DO00235,ITR0008,"SHOES NAME",Red,40.00,,,"SHOES DESC",0,"2021-01-17 19:39:56","2021-01-17 19:39:56"
DO00236,ITR0008,"SHOES NAME",Red,40.00,,,"SHOES DESC",0,"2021-01-17 19:39:56","2021-01-17 19:39:56"
DO00237,ITR0008,"SHOES NAME",Red,40.00,,,"SHOES DESC",0,"2021-01-17 19:39:56","2021-01-17 19:39:56"
DO00238,ITR0008,"SHOES NAME",Red,40.00,,,"SHOES DESC",0,"2021-01-17 19:39:56","2021-01-17 19:39:56"
DO00239,ITR0008,"SHOES NAME",Red,40.00,,,"SHOES DESC",0,"2021-01-17 19:39:56","2021-01-17 19:39:56"
DO00240,ITR0008,"SHOES NAME",Red,40.00,,,"SHOES DESC",0,"2021-01-17 19:39:56","2021-01-17 19:39:56"
DO00241,ITR0008,"SHOES NAME",Red,40.00,,,"SHOES DESC",0,"2021-01-17 19:39:56","2021-01-17 19:39:56"
DO00242,ITR0008,"SHOES NAME",Red,40.00,,,"SHOES DESC",0,"2021-01-17 19:39:56","2021-01-17 19:39:56"
DO00243,ITR0008,"SHOES NAME",Red,40.00,,,"SHOES DESC",0,"2021-01-17 19:39:56","2021-01-17 19:39:56"
DO00244,ITR0008,"SHOES NAME",Red,40.00,,,"SHOES DESC",0,"2021-01-17 19:39:56","2021-01-17 19:39:56"
DO00245,ITR0008,"SHOES NAME",Red,40.00,,,"SHOES DESC",0,"2021-01-17 19:39:56","2021-01-17 19:39:56"
DO00246,ITR0008,"SHOES NAME",Red,40.00,,,"SHOES DESC",0,"2021-01-17 19:39:56","2021-01-17 19:39:56"
DO00247,ITR0009,"SHOES NAME",Black,42.00,,,"SHOES DESC",0,"2021-01-17 19:39:56","2021-01-17 19:39:56"
DO00248,ITR0009,"SHOES NAME",Black,42.00,,,"SHOES DESC",0,"2021-01-17 19:39:56","2021-01-17 19:39:56"
