id_user,name,role,phone_number,email,password
U000001,Marullah,"Manager Production",085777944556,viatu_mproduction@viatushop.com,$2y$10$eL4FcQM8s12HJG1XqS.Nbe5O4hnf/qVuFD.sguKzD/20mogq8esue,"2021-01-17 19:39:56","2021-01-17 19:39:56"
U000002,"Aswin Rasyidi",Administrator,085710061173,viatu_admin@viatushop.com,$2y$10$Acyi/x3msO60m.oaXJSY3OU/T/cQUKOSiFhMEmDUyRm55Wuf8vsVK,"2021-01-17 19:39:56","2021-01-17 19:39:56"
U000003,"Indri Hikmah",Marketing,085693302128,viatu_marketing@viatushop.com,$2y$10$OYL1mZTyOQtM3DJjE6vM2.FZG25oRcaSBv0vROSsIhSSzf9zth2/S,"2021-01-17 19:39:56","2021-01-17 19:39:56"
U000004,Alfiansyah,Warehouse,081384719417,viatu_warehouse@viatushop.com,$2y$10$Sbzwkfr1i/ljUCyvDajzcuVkAMtX21YcMhUDE7ncDJQHtjXNXOR4K,"2021-01-17 19:39:56","2021-01-17 19:39:56"
